…
``` r
attach(accra_gtfs)

routes_df %>% inner_join(trips_df, by="route_id") %>%
  inner_join(stop_times_df) %>% 
    inner_join(stops_df, by="stop_id") %>% 
      group_by(route_long_name) %>%
        summarise(stop_count=n_distinct(stop_id)) %>%
  arrange(desc(stop_count))
```

    ## Joining, by = "trip_id"

    ## # A tibble: 271 x 2
    ##    route_long_name          stop_count
    ##    <chr>                         <int>
    ##  1 Kasoa ↔ Accra New Town          116
    ##  2 Omanjor ↔ Accra CMB             109
    ##  3 Manhean ↔ Accra CMB             105
    ##  4 Adeyman ↔ Abeka Lapaz           104
    ##  5 Ashongman ↔ Abeka Lapaz         101
    ##  6 Nungua ↔ Circle Odorna           91
    ##  7 Odorna ↔ Nungua                  91
    ##  8 Teshie-Nungua ↔ Achimota         91
    ##  9 Accra CMB ↔ Ablekuma             86
    ## 10 Kasoa ↔ Korle Bu                 84
    ## # ... with 261 more rows
…
